Approach,AM Control Delay ,AM LOS,Mid-day Control Delay ,Mid-Day LOS,PM Control Delay ,PM LOS
Eastbound Left,32.9,D,17.7,C,26.9,D
Eastbound Through/Right,32.9,D,17.7,C,26.9,D
Westbound Left,23.1,C,16.3,C,24.9,C
Westbound Through/Right,23.1,C,16.3,C,24.9,C
Northbound Left,0.7,A,0.7,A,0.8,A
Northbound Through,0.7,A,1,A,1,A
Northbound Right,0,A,0,A,0,A
Southbound Left,0.7,A,0.3,A,0.3,A
Southbound Through,0.7,A,0.5,A,0.4,A
Southbound Right,0,A,0,A,0,A
Overall,4.4,A,2.5,A,4.1,A
