﻿Approach,AM Peak Hour Average Control Delay (sec/veh),AM Peak Hour LOS,PM Peak Hour Average Control Delay (sec/veh),PM Peak Hour los
Eastbound Left,7.6,A,8.3,A
Eastbound Through,7.6,A,8.3,A
Eastbound Right,7.6,A,8.3,A
Westbound Left,7.8,A,7.6,A
Westbound Through,7.8,A,7.6,A
Westbound Right,7.8,A,7.6,A
Northbound Left,7.7,A,0,N/A
Northbound Through,7.7,A,7.8,A
Northbound Right,7.7,A,7.8,A
Southbound Left,7.4,A,8,A
Southbound Through,7.4,A,8,A
Southbound Right,7.4,A,8,A
Overall,7.7,A,8,A
