﻿Section,Location,Fatal Crash,A-Injury Crash,B-Injury Crash,C-Injury Crash,No Injury Crash,Total Crash Counts
Section 1,,,,,,,5
,Walnut Street / County Road 2700 E,,,,1,,
,Walnut Street - County Road 2900 N,,,,,,
,County Road 2900 N / County Road 2700 E,,,,,1,
,County Road 2900 N - County Road 2800 N,1,,,,1,
,County Road 2800 N / County Road 2700 E,,,,,,
,County Road 2800 N - County Road 2700 N,,,,,1,
Section 2,,,,,,,2
,County Road 2700 N / County Road 2700 E,,,,,,
,County Road 2700 N - County Road 2600 N,,1,,,1,
,County Road 2600 N / County Road 2700 E,,,,,,
,County Road 2600 N - County Road 2500 N,,,,,,
Section 3,,,,,,,2
,County Road 2500 N / County Road 2700 E,,,1,,,
,County Road 2500 N - County Road 2400 N,,,,,1,
Section 4,,,,,,,3
,County Road 2400 N / County Road 2700 E,,,,,1,
,County Road 2400 N - County Road 2300 N,,,,,,
,County Road 2300 N / County Road 2700 E,,,,,,
,County Road 2300 N - County Road 2200 N,,1,,1,,
,County Road 2200 N / County Road 2700 E,,,,,,
,County Road 2200 N - County Road 2150 N,,,,,,
Section 5,,,,,,,2
,County Road 2150 N / County Road 2700 E,,,,,,
,County Road 2150 N - County Road 2100 N,,,,,1,
,County Road 2100 N / County Road 2700 E,,,,,,
,County Road 2100 N - County Road 2050 N,,1,,,,
,County Road 2050 N / County Road 2700 E,,,,,,
,County Road 2050 N - County Road 2000 N,,,,,,
,County Road 2000 N / County Road 2700 E,,,,,,
Total,,1,3,1,2,7,14
