﻿Collision Type,Crash Severity,Primary Cause,Comments
Fixed Object,B-Injury,Evasive Action Due to Animal / Object / Non-Motorist,"Two-Way-Stop-Control, Ditch, Struck an entry culvert and a tree"
Other Object,No Injury,Disregarding Other Traffic Signs,Railroad crossing being worked on
