,2014,2015,2016,2017,2018,Total,Percentage
Turning,1,1,3,6,5,16,29%
Rear End,4,1,1,2,4,12,21%
Angle,6,1,0,3,0,10,18%
Fixed Object,3,1,1,1,1,7,13%
Pedalcyclist,1,1,1,0,0,3,5%
Sideswipe Same Direction,0,1,1,1,0,3,5%
Parked Motor Vehicle,1,1,0,0,0,2,4%
Pedestrian,0,0,1,0,1,2,4%
Other Object,0,0,0,1,0,1,2%
Total,16,7,8,14,11,56,100%
