Start Time,Southbound,Westbound,Northbound,Eastbound
7:00:00,4,15,3,27
7:15:00,4,15,7,34
7:30:00,3,18,2,47
7:45:00,11,26,13,69
8:00:00,6,16,6,52
8:15:00,7,25,10,72
8:30:00,5,32,5,56
8:45:00,10,33,3,85
9:00:00,11,38,8,60
9:15:00,6,31,18,80
9:30:00,17,45,24,57
9:45:00,12,50,12,56
10:00:00,12,38,10,45
10:15:00,7,37,20,46
10:30:00,10,41,16,64
10:45:00,15,55,25,84
11:00:00,14,75,19,52
11:15:00,12,44,23,56
11:30:00,7,57,17,80
11:45:00,9,56,30,69
12:00:00,5,60,36,72
12:15:00,14,64,36,93
12:30:00,15,54,30,92
12:45:00,13,59,25,82
13:00:00,17,62,26,78
13:15:00,10,71,18,57
13:30:00,15,51,27,80
13:45:00,9,79,30,87
14:00:00,8,67,35,77
14:15:00,10,56,19,85
14:30:00,11,65,26,71
14:45:00,12,65,29,79
15:00:00,21,63,42,60
15:15:00,14,83,27,86
15:30:00,20,72,24,80
15:45:00,5,66,25,92
16:00:00,7,68,25,61
16:15:00,8,67,31,72
16:30:00,18,84,14,73
16:45:00,16,96,22,71
17:00:00,15,80,23,88
17:15:00,6,98,26,75
17:30:00,11,69,31,70
17:45:00,11,70,30,85
18:00:00,12,51,22,71
18:15:00,18,69,20,76
18:30:00,13,73,26,85
18:45:00,18,78,27,59
