Start Time,Eastbound,Westbound
7:00:00,2,2
7:15:00,12,2
7:30:00,21,0
7:45:00,46,2
8:00:00,23,1
8:15:00,14,0
8:30:00,28,5
8:45:00,33,12
9:00:00,41,8
9:15:00,60,8
9:30:00,35,7
9:45:00,35,25
10:00:00,15,16
10:15:00,34,20
10:30:00,46,21
10:45:00,80,51
11:00:00,37,93
11:15:00,31,42
11:30:00,44,28
11:45:00,62,50
12:00:00,56,83
12:15:00,78,72
12:30:00,67,105
12:45:00,60,48
13:00:00,40,59
13:15:00,51,68
13:30:00,74,47
13:45:00,79,83
14:00:00,46,81
14:15:00,39,57
14:30:00,35,55
14:45:00,56,62
15:00:00,50,74
15:15:00,49,83
15:30:00,47,85
15:45:00,55,72
16:00:00,40,95
16:15:00,34,57
16:30:00,57,71
16:45:00,62,101
17:00:00,63,97
17:15:00,48,80
17:30:00,59,51
17:45:00,40,67
18:00:00,59,67
18:15:00,56,62
18:30:00,75,54
18:45:00,66,65
