,Urban Segments,,,,,,,,,,,,,,,,
,Segment Name,Location,Length (Mi),Number of Crashes,,,,,,Number of Fatalities and Injuries,,,,Index value,,,
,,,,Total Crashes,Fatal Crashes,A-injury Crashes,B-injury Crashes,C-injury Crashes,No injury Crashes,Fatalities,A- Injuries,B- Injuries,C-Injuries,Crash Index,EPDO Index,Crash per Mile Index,Priority Index
1,Lincoln Avenue,West Eads St - Oaks Road North,1.65,45,0,4,5,8,28,0,5,7,11,4,4,4,12
2,University Avenue,South Second St- Guardian Dr,2.84,60,0,6,5,2,47,0,11,9,2,4,4,3,11
3,Bradley Avenue,North Oak St- County Rd 600E,6.11,93,1,5,10,8,69,1,5,15,16,4,4,2,10
,,,,,,,,,,,,,,,,,
,,,,,,,,,,,,,,,,,
,Urban Signalized Intersections,,,,,,,,,,,,,,,,
,,,,Number of Crashes,,,,,,Number of Fatalities and Injuries,,,,Index Value,,,
,N-S Roadway,E-W Roadway,Control   Type,Total Crashes,Fatal Crashes,A-injury Crashes,B-injury Crashes,C-injury Crashes,No injury Crashes,Fatalities,A- Injuries,B- Injuries,C-Injuries,Crash Index,EPDO Index,Priority Index,
1,Prospect Ave.,Bloomington Rd.,Signal,127,1,4,5,7,110,1,6,7,8,4,4,8,
2,Mattis Ave.,Bradley Ave.,Signal,112,0,8,11,17,76,0,8,21,25,4,4,8,
3,Cunningham Ave.,University Ave.,Signal,104,0,6,12,14,71,0,8,16,22,4,4,8,
4,Lincoln Ave.,University Ave.,Signal,102,1,2,7,15,77,1,2,9,19,4,3,7,
5,Mattis Ave.,Springfield Ave.,Signal,78,0,4,10,11,53,0,4,11,20,3,3,6,
,,,,,,,,,,,,,,,,,
,,,,,,,,,,,,,,,,,
,Urban Unsignalized Intersections,,,,,,,,,,,,,,,,
,,,,Number of Crashes,,,,,,Number of Fatalities and Injuries,,,,Index Value,,,
,N-S Roadway,E-W Roadway,Control   Type,Total Crashes,Fatal Crashes,A-injury Crashes,B-injury Crashes,C-injury Crashes,No injury Crashes,Fatalities,A- Injuries,B- Injuries,C-Injuries,Crash Index,EPDO Index,Priority Index,
1,Prospect Ave.,John St.,2WSC (E-W,36,0,1,6,4,25,0,1,6,8,4,4,8,
2,Lincoln Ave.,Ohio St.,1WSC (W),32,0,2,2,5,23,0,3,2,5,4,4,8,
3,Fifth St.,Green St.,2WSC (N-S),26,0,2,0,3,21,0,2,0,3,4,4,8,
4,McKinley Ave.,Bradley Ave. ,4WSC,27,0,2,4,2,19,0,2,4,2,4,4,8,
5,Prospect Ave.,Devonshire Dr.,4WSC,18,0,1,2,3,12,0,1,2,3,3,3,6,
,,,,,,,,,,,,,,,,,
,,,,,,,,,,,,,,,,,
,,,,,,,,,,,,,,,,,
,Suggested from safety committee,,,,,,,,,,,,,,,,
,,,,,,,,,,,,,,,,,
