,Angle,Animal,Fixed Object,Overturned,Parked Motor Vehicle,Pedalcyclist,Pedestrian,Rear End,Sideswipe Same Direction,Turning
Lincoln Avenue/Oaks Road,0,0,0,0,0,0,0,0,0,0
Oaks Road - Somer Drive,0,0,0,0,0,0,0,0,0,0
Lincoln Avenue/Somer Drive,0,0,0,0,0,0,0,0,1,0
Somer Drive - Wilbur Road,0,0,0,0,0,0,0,0,0,0
Lincoln Avenue/Wilbur Road,0,1,0,0,0,0,0,0,0,1
Wilbur Road - Anthony Drive,1,0,0,0,0,0,0,0,0,0
Lincoln Avenue/Anthony Drive,0,1,1,0,0,0,0,0,0,2
Anthony Drive - Interstate-74 Ramp (N),0,0,0,0,0,0,0,0,0,0
Lincoln Avenue/Interstate-74 Ramp (N),1,0,3,2,0,0,0,7,0,8
Lincoln Ave overpass at I-74,0,0,0,0,0,0,0,2,0,0
Lincoln Avenue/ Interstate-74 Ramp (S),0,0,0,0,0,0,0,14,1,7
