﻿Severity\Year,2015,2016,2017,2018,2019,Total,Percent,
Fatal,0,0,0,0,0,0,0%,
A-Injury Crash,0,0,0,1,0,1,4%,
B-Injury Crash,1,1,0,1,0,3,13%,
C-Injury Crash,2,0,0,0,1,3,13%,
No Injury,2,6,4,2,3,17,71%,
Total,5,7,4,4,4,24,100%,
