Collision Type,Crash Severity,Primary Cause,Comments
Sideswipe Opposite Direction,No Injury,"Distraction, Driving on Wrong Side",Look at center console
Rear End,No Injury,Equipment-Vehicle Condition,
2 Animal crashes,No Injury,Deer,
