Severity,Angle,Fixed Object,Pedalcyclist,Rear End,Sideswipe Opposite Direction,Sideswipe Same Direction,Turning
Fatal,0,0,0,0,0,0,0
A-Injury,1,0,1,1,0,0,1
B-Injury,2,1,2,0,0,0,2
C-Injury,1,0,0,4,0,0,6
No Injury,3,1,0,17,2,8,33
