Approach,AM Control Delay ,AM LOS,Mid-day Control Delay ,Mid-Day LOS,PM Control Delay ,PM LOS
Eastbound Left,41.3,D,42.3,D,45.7,D
Eastbound Through,39,D,39.1,D,40,D
Eastbound Right,4.6,A,5.5,A,6.4,A
Westbound Left,44.1,D,49.1,D,55.6,E
Westbound Through,44.9,D,47.5,D,52,D
Westbound Right,4.5,A,14.3,B,19.7,B
Northbound Left,15.5,B,15.4,B,16.8,B
Northbound Through,33,C,32.3,C,38.1,D
Northbound Right,26.2,C,18.4,B,21,C
Southbound Left,25,C,25.5,C,26.6,C
Southbound Through,2.5,A,3.6,A,3.8,A
Southbound Right,26.6,C,26.5,C,30.6,C
Overall,41.3,D,42.3,D,45.7,D
